{
  "appId": "com.teste.take",
  "appName": "teste_take",
  "bundledWebRuntime": true,
  "npmClient": "npm",
  "webDir": "www",
  "plugins": {
    "SplashScreen": {
      "launchShowDuration": 0
    }
  }
}
